{
  "project_info": {
    "project_number": "285000749356",
    "firebase_url": "https://chameleon-8c888.firebaseio.com",
    "project_id": "chameleon-8c888",
    "storage_bucket": "chameleon-8c888.appspot.com"
  },
  "client": [
    {
      "client_info": {
        "mobilesdk_app_id": "1:285000749356:android:7e98ad64433d688d599c89",
        "android_client_info": {
          "package_name": "com.chameleon_app"
        }
      },
      "oauth_client": [
        {
          "client_id": "285000749356-c1o91hufd7831u1flbbj40l7n2lf1523.apps.googleusercontent.com",
          "client_type": 1,
          "android_info": {
            "package_name": "com.chameleon_app",
            "certificate_hash": "fbdd255fdb964027396fbc5f2e1131478d954dfc"
          }
        },
        {
          "client_id": "285000749356-5f4aj4fcj88evirapj0f5s3trctui9f7.apps.googleusercontent.com",
          "client_type": 1,
          "android_info": {
            "package_name": "com.chameleon_app",
            "certificate_hash": "5e8f16062ea3cd2c4a0d547876baa6f38cabf625"
          }
        },
        {
          "client_id": "285000749356-ejdfg37vmbku0sui4oqf2aagbnk6ho6k.apps.googleusercontent.com",
          "client_type": 3
        }
      ],
      "api_key": [
        {
          "current_key": "AIzaSyBHLeCM8blr3Ggy9ixh2swGz4RAwYtBx0Y"
        }
      ],
      "services": {
        "appinvite_service": {
          "other_platform_oauth_client": [
            {
              "client_id": "285000749356-ejdfg37vmbku0sui4oqf2aagbnk6ho6k.apps.googleusercontent.com",
              "client_type": 3
            }
          ]
        }
      }
    }
  ],
  "configuration_version": "1"
}